L3 bin from NetCDF 4 compound types. — read_l3 • roc
…
    Value

    tibble

    Examples

root <- "data/oceandata.sci.gsfc.nasa.gov/SeaWiFS/L3BIN"
data_dir <- getOption("default.datadir")  ## raadtools 
files <- structure(list(file = file.path(root, "1997/247/S1997247.L3b_DAY_RRS.nc"),
fullname = file.path(data_dir, file.path(root, "1997/247/S1997247.L3b_DAY_RRS.nc")),
date = structure(873331200, class = c("POSIXct", "POSIXt"
), tzone = "GMT")), .Names = c("file", "fullname", "date"
), row.names = 1L, class = "data.frame")
read_l3(inputfiles = files)
#> # A tibble: 6,403 x 26
#>    bin_num  nobs nscenes  weights   time_rec BinList_bin_num BinList_nobs
#>      <int> <int>   <int>    <dbl>      <dbl>           <int>        <int>
#>  1 4257988     4       2 2.828427  590176384         4257988            4
#>  2 4257989     4       2 2.828427  590176384         4257989            4
#>  3 4261876     2       2 2.000000  295088192         4261876            2
#>  4 4261877     2       2 2.000000  295088192         4261877            2
#>  5 4261878     6       2 3.464102  885264512         4261878            6
#>  6 4261879     4       2 2.828427  590176384         4261879            4
#>  7 4261880     8       2 4.000000 1180352640         4261880            8
#>  8 4261881     8       2 4.000000 1180352640         4261881            8
#>  9 4261882     6       2 3.464102  885264512         4261882            6
#> 10 4261889     2       2 2.000000  295088192         4261889            2
#> # ... with 6,393 more rows, and 19 more variables: BinList_nscenes <int>,
#> #   BinList_weights <dbl>, BinList_time_rec <dbl>, Rrs_412_sum <dbl>,
#> #   Rrs_412_sum_squared <dbl>, Rrs_443_sum <dbl>, Rrs_443_sum_squared <dbl>,
#> #   Rrs_490_sum <dbl>, Rrs_490_sum_squared <dbl>, Rrs_510_sum <dbl>,
#> #   Rrs_510_sum_squared <dbl>, Rrs_555_sum <dbl>, Rrs_555_sum_squared <dbl>,
#> #   Rrs_670_sum <dbl>, Rrs_670_sum_squared <dbl>, angstrom_sum <dbl>,
#> #   angstrom_sum_squared <dbl>, aot_865_sum <dbl>, aot_865_sum_squared <dbl>
…
